\relax 
\newlabel{l1}{{1}{2}}
\@writefile{lol}{\contentsline {lstlisting}{\numberline {1}Cell class header file}{2}}
\newlabel{l2}{{2}{2}}
\@writefile{lol}{\contentsline {lstlisting}{\numberline {2}Flow state class header file}{2}}
\newlabel{l3}{{3}{3}}
\@writefile{lol}{\contentsline {lstlisting}{\numberline {3}Thermodynamic gas model header file}{3}}
\newlabel{l4}{{4}{3}}
\@writefile{lol}{\contentsline {lstlisting}{\numberline {4}Reconstruction methods header file}{3}}
\newlabel{main}{{5}{5}}
\@writefile{lol}{\contentsline {lstlisting}{\numberline {5}Main routine}{5}}
\newlabel{wall}{{6}{9}}
\@writefile{lol}{\contentsline {lstlisting}{\numberline {6}Wall Boundary Condition}{9}}
\newlabel{roe}{{7}{10}}
\@writefile{lol}{\contentsline {lstlisting}{\numberline {7}Roe's Solver}{10}}
\newlabel{updateintime}{{8}{13}}
\@writefile{lol}{\contentsline {lstlisting}{\numberline {8}Time Integration}{13}}
\@writefile{lof}{\contentsline {figure}{\numberline {1}{\ignorespaces Error at something\relax }}{14}}
\providecommand*\caption@xref[2]{\@setref\relax\@undefined{#1}}
\newlabel{instability}{{1}{14}}
\newlabel{postM}{{9}{14}}
\@writefile{lol}{\contentsline {lstlisting}{\numberline {9}Post processing to compare error}{14}}
\@writefile{lof}{\contentsline {figure}{\numberline {2}{\ignorespaces Mean error in domain compared to reference solution\relax }}{16}}
\newlabel{Nerror}{{2}{16}}
\@writefile{toc}{\contentsline {paragraph}{Part a) Global Time Stepping}{17}}
\@writefile{toc}{\contentsline {paragraph}{Part b) Local Time Stepping}{17}}
\newlabel{dt}{{10}{17}}
\@writefile{lol}{\contentsline {lstlisting}{\numberline {10}Time stepping}{17}}
\@writefile{toc}{\contentsline {paragraph}{Part c) Comparison}{17}}
\@writefile{lof}{\contentsline {figure}{\numberline {3}{\ignorespaces Comparison of Residual Convergence under different time stepping\relax }}{18}}
\newlabel{residcompare}{{3}{18}}
\@writefile{lof}{\contentsline {figure}{\numberline {4}{\ignorespaces Residual for first order simulation\relax }}{19}}
\newlabel{residfirstorder}{{4}{19}}
\@writefile{lof}{\contentsline {figure}{\numberline {5}{\ignorespaces Pressure over the domain\relax }}{20}}
\newlabel{pfirstorder}{{5}{20}}
\@writefile{lof}{\contentsline {figure}{\numberline {6}{\ignorespaces Density over the domain\relax }}{21}}
\newlabel{rhofirstorder}{{6}{21}}
\@writefile{lof}{\contentsline {figure}{\numberline {7}{\ignorespaces Mach number over the domain\relax }}{22}}
\newlabel{Mfirstorder}{{7}{22}}
\@writefile{lof}{\contentsline {figure}{\numberline {8}{\ignorespaces Pressure plot at right boundary\relax }}{22}}
\newlabel{pressure_endshock}{{8}{22}}
\@writefile{lof}{\contentsline {figure}{\numberline {9}{\ignorespaces Density plot at right boundary\relax }}{23}}
\newlabel{density_endshock}{{9}{23}}
\newlabel{interpolate}{{11}{24}}
\@writefile{lol}{\contentsline {lstlisting}{\numberline {11}Reconstruction Methods}{24}}
\@writefile{lof}{\contentsline {figure}{\numberline {10}{\ignorespaces Pressure over the domain\relax }}{25}}
\newlabel{residsecondorder}{{10}{25}}
\@writefile{lof}{\contentsline {figure}{\numberline {11}{\ignorespaces Pressure over the domain\relax }}{26}}
\newlabel{psecondorder}{{11}{26}}
\@writefile{lof}{\contentsline {figure}{\numberline {12}{\ignorespaces Density over the domain\relax }}{27}}
\newlabel{rhosecondorder}{{12}{27}}
\@writefile{lof}{\contentsline {figure}{\numberline {13}{\ignorespaces Mach number over the domain\relax }}{28}}
\newlabel{Msecondorder}{{13}{28}}
\@writefile{lof}{\contentsline {figure}{\numberline {14}{\ignorespaces Pressure plot at right boundary\relax }}{29}}
\newlabel{pressure_2endshock}{{14}{29}}
\@writefile{lof}{\contentsline {figure}{\numberline {15}{\ignorespaces Density plot at right boundary\relax }}{30}}
\newlabel{density_2endshock}{{15}{30}}
\newlabel{main2}{{12}{31}}
\@writefile{lol}{\contentsline {lstlisting}{\numberline {12}Main Routine for second order interpolation}{31}}
\@writefile{lof}{\contentsline {figure}{\numberline {16}{\ignorespaces Residual vs time step\relax }}{37}}
\newlabel{residsecond2order}{{16}{37}}
\@writefile{lof}{\contentsline {figure}{\numberline {17}{\ignorespaces Residual over the domain\relax }}{38}}
\newlabel{resid_second2order}{{17}{38}}
\@writefile{lof}{\contentsline {figure}{\numberline {18}{\ignorespaces Pressure over the domain\relax }}{39}}
\newlabel{psecond2order}{{18}{39}}
\@writefile{lof}{\contentsline {figure}{\numberline {19}{\ignorespaces Density over the domain\relax }}{40}}
\newlabel{rhosecond2order}{{19}{40}}
\@writefile{lof}{\contentsline {figure}{\numberline {20}{\ignorespaces Mach number over the domain\relax }}{41}}
\newlabel{Msecond2order}{{20}{41}}
\@writefile{lof}{\contentsline {figure}{\numberline {21}{\ignorespaces Pressure plot at right boundary\relax }}{42}}
\newlabel{pressure_22endshock}{{21}{42}}
\@writefile{lof}{\contentsline {figure}{\numberline {22}{\ignorespaces Density plot at right boundary\relax }}{43}}
\newlabel{density_22endshock}{{22}{43}}
\newlabel{flow}{{13}{44}}
\@writefile{lol}{\contentsline {lstlisting}{\numberline {13}\texttt  {flow\_threeD.cxx}}{44}}
\newlabel{thermo}{{14}{45}}
\@writefile{lol}{\contentsline {lstlisting}{\numberline {14}\texttt  {thermo.cxx}}{45}}
\newlabel{matrix}{{15}{46}}
\@writefile{lol}{\contentsline {lstlisting}{\numberline {15}\texttt  {matrix.cxx}}{46}}
\newlabel{cell}{{16}{47}}
\@writefile{lol}{\contentsline {lstlisting}{\numberline {16}\texttt  {cell.cxx}}{47}}
