# vtk DataFile Version 2.0
MyGrid 
ASCII 
DATASET UNSTRUCTURED_GRID 
POINTS 420 float
       0        0        0
       0        0     0.05
       0        0      0.1
       0        0     0.15
       0        0      0.2
       0        0     0.25
       0        0      0.3
       0        0     0.35
       0        0      0.4
       0        0     0.45
       0        0      0.5
       0        0     0.55
       0        0      0.6
       0        0     0.65
       0        0      0.7
       0        0     0.75
       0        0      0.8
       0        0     0.85
       0        0      0.9
       0        0     0.95
       0        0        1
       0        0     1.05
       0        0      1.1
       0        0     1.15
       0        0      1.2
       0        0     1.25
       0        0      1.3
       0        0     1.35
       0        0      1.4
       0        0     1.45
       0        0      1.5
       0        0     1.55
       0        0      1.6
       0        0     1.65
       0        0      1.7
       0        0     1.75
       0        0      1.8
       0        0     1.85
       0        0      1.9
       0        0     1.95
       0        0        2
       0        0     2.05
       0        0      2.1
       0        0     2.15
       0        0      2.2
       0        0     2.25
       0        0      2.3
       0        0     2.35
       0        0      2.4
       0        0     2.45
       0        0      2.5
       0        0     2.55
       0        0      2.6
       0        0     2.65
       0        0      2.7
       0        0     2.75
       0        0      2.8
       0        0     2.85
       0        0      2.9
       0        0     2.95
       0        0        3
       0        0     3.05
       0        0      3.1
       0        0     3.15
       0        0      3.2
       0        0     3.25
       0        0      3.3
       0        0     3.35
       0        0      3.4
       0        0     3.45
       0        0      3.5
       0        0     3.55
       0        0      3.6
       0        0     3.65
       0        0      3.7
       0        0     3.75
       0        0      3.8
       0        0     3.85
       0        0      3.9
       0        0     3.95
       0        0        4
       0        0     4.05
       0        0      4.1
       0        0     4.15
       0        0      4.2
       0        0     4.25
       0        0      4.3
       0        0     4.35
       0        0      4.4
       0        0     4.45
       0        0      4.5
       0        0     4.55
       0        0      4.6
       0        0     4.65
       0        0      4.7
       0        0     4.75
       0        0      4.8
       0        0     4.85
       0        0      4.9
       0        0     4.95
       0        0        5
       0        0     5.05
       0        0      5.1
       0        0     5.15
       0        0      5.2
       0     0.05        0
       0     0.05     0.05
       0     0.05      0.1
       0     0.05     0.15
       0     0.05      0.2
       0     0.05     0.25
       0     0.05      0.3
       0     0.05     0.35
       0     0.05      0.4
       0     0.05     0.45
       0     0.05      0.5
       0     0.05     0.55
       0     0.05      0.6
       0     0.05     0.65
       0     0.05      0.7
       0     0.05     0.75
       0     0.05      0.8
       0     0.05     0.85
       0     0.05      0.9
       0     0.05     0.95
       0     0.05        1
       0     0.05     1.05
       0     0.05      1.1
       0     0.05     1.15
       0     0.05      1.2
       0     0.05     1.25
       0     0.05      1.3
       0     0.05     1.35
       0     0.05      1.4
       0     0.05     1.45
       0     0.05      1.5
       0     0.05     1.55
       0     0.05      1.6
       0     0.05     1.65
       0     0.05      1.7
       0     0.05     1.75
       0     0.05      1.8
       0     0.05     1.85
       0     0.05      1.9
       0     0.05     1.95
       0     0.05        2
       0     0.05     2.05
       0     0.05      2.1
       0     0.05     2.15
       0     0.05      2.2
       0     0.05     2.25
       0     0.05      2.3
       0     0.05     2.35
       0     0.05      2.4
       0     0.05     2.45
       0     0.05      2.5
       0     0.05     2.55
       0     0.05      2.6
       0     0.05     2.65
       0     0.05      2.7
       0     0.05     2.75
       0     0.05      2.8
       0     0.05     2.85
       0     0.05      2.9
       0     0.05     2.95
       0     0.05        3
       0     0.05     3.05
       0     0.05      3.1
       0     0.05     3.15
       0     0.05      3.2
       0     0.05     3.25
       0     0.05      3.3
       0     0.05     3.35
       0     0.05      3.4
       0     0.05     3.45
       0     0.05      3.5
       0     0.05     3.55
       0     0.05      3.6
       0     0.05     3.65
       0     0.05      3.7
       0     0.05     3.75
       0     0.05      3.8
       0     0.05     3.85
       0     0.05      3.9
       0     0.05     3.95
       0     0.05        4
       0     0.05     4.05
       0     0.05      4.1
       0     0.05     4.15
       0     0.05      4.2
       0     0.05     4.25
       0     0.05      4.3
       0     0.05     4.35
       0     0.05      4.4
       0     0.05     4.45
       0     0.05      4.5
       0     0.05     4.55
       0     0.05      4.6
       0     0.05     4.65
       0     0.05      4.7
       0     0.05     4.75
       0     0.05      4.8
       0     0.05     4.85
       0     0.05      4.9
       0     0.05     4.95
       0     0.05        5
       0     0.05     5.05
       0     0.05      5.1
       0     0.05     5.15
       0     0.05      5.2
    0.05        0        0
    0.05        0     0.05
    0.05        0      0.1
    0.05        0     0.15
    0.05        0      0.2
    0.05        0     0.25
    0.05        0      0.3
    0.05        0     0.35
    0.05        0      0.4
    0.05        0     0.45
    0.05        0      0.5
    0.05        0     0.55
    0.05        0      0.6
    0.05        0     0.65
    0.05        0      0.7
    0.05        0     0.75
    0.05        0      0.8
    0.05        0     0.85
    0.05        0      0.9
    0.05        0     0.95
    0.05        0        1
    0.05        0     1.05
    0.05        0      1.1
    0.05        0     1.15
    0.05        0      1.2
    0.05        0     1.25
    0.05        0      1.3
    0.05        0     1.35
    0.05        0      1.4
    0.05        0     1.45
    0.05        0      1.5
    0.05        0     1.55
    0.05        0      1.6
    0.05        0     1.65
    0.05        0      1.7
    0.05        0     1.75
    0.05        0      1.8
    0.05        0     1.85
    0.05        0      1.9
    0.05        0     1.95
    0.05        0        2
    0.05        0     2.05
    0.05        0      2.1
    0.05        0     2.15
    0.05        0      2.2
    0.05        0     2.25
    0.05        0      2.3
    0.05        0     2.35
    0.05        0      2.4
    0.05        0     2.45
    0.05        0      2.5
    0.05        0     2.55
    0.05        0      2.6
    0.05        0     2.65
    0.05        0      2.7
    0.05        0     2.75
    0.05        0      2.8
    0.05        0     2.85
    0.05        0      2.9
    0.05        0     2.95
    0.05        0        3
    0.05        0     3.05
    0.05        0      3.1
    0.05        0     3.15
    0.05        0      3.2
    0.05        0     3.25
    0.05        0      3.3
    0.05        0     3.35
    0.05        0      3.4
    0.05        0     3.45
    0.05        0      3.5
    0.05        0     3.55
    0.05        0      3.6
    0.05        0     3.65
    0.05        0      3.7
    0.05        0     3.75
    0.05        0      3.8
    0.05        0     3.85
    0.05        0      3.9
    0.05        0     3.95
    0.05        0        4
    0.05        0     4.05
    0.05        0      4.1
    0.05        0     4.15
    0.05        0      4.2
    0.05        0     4.25
    0.05        0      4.3
    0.05        0     4.35
    0.05        0      4.4
    0.05        0     4.45
    0.05        0      4.5
    0.05        0     4.55
    0.05        0      4.6
    0.05        0     4.65
    0.05        0      4.7
    0.05        0     4.75
    0.05        0      4.8
    0.05        0     4.85
    0.05        0      4.9
    0.05        0     4.95
    0.05        0        5
    0.05        0     5.05
    0.05        0      5.1
    0.05        0     5.15
    0.05        0      5.2
    0.05     0.05        0
    0.05     0.05     0.05
    0.05     0.05      0.1
    0.05     0.05     0.15
    0.05     0.05      0.2
    0.05     0.05     0.25
    0.05     0.05      0.3
    0.05     0.05     0.35
    0.05     0.05      0.4
    0.05     0.05     0.45
    0.05     0.05      0.5
    0.05     0.05     0.55
    0.05     0.05      0.6
    0.05     0.05     0.65
    0.05     0.05      0.7
    0.05     0.05     0.75
    0.05     0.05      0.8
    0.05     0.05     0.85
    0.05     0.05      0.9
    0.05     0.05     0.95
    0.05     0.05        1
    0.05     0.05     1.05
    0.05     0.05      1.1
    0.05     0.05     1.15
    0.05     0.05      1.2
    0.05     0.05     1.25
    0.05     0.05      1.3
    0.05     0.05     1.35
    0.05     0.05      1.4
    0.05     0.05     1.45
    0.05     0.05      1.5
    0.05     0.05     1.55
    0.05     0.05      1.6
    0.05     0.05     1.65
    0.05     0.05      1.7
    0.05     0.05     1.75
    0.05     0.05      1.8
    0.05     0.05     1.85
    0.05     0.05      1.9
    0.05     0.05     1.95
    0.05     0.05        2
    0.05     0.05     2.05
    0.05     0.05      2.1
    0.05     0.05     2.15
    0.05     0.05      2.2
    0.05     0.05     2.25
    0.05     0.05      2.3
    0.05     0.05     2.35
    0.05     0.05      2.4
    0.05     0.05     2.45
    0.05     0.05      2.5
    0.05     0.05     2.55
    0.05     0.05      2.6
    0.05     0.05     2.65
    0.05     0.05      2.7
    0.05     0.05     2.75
    0.05     0.05      2.8
    0.05     0.05     2.85
    0.05     0.05      2.9
    0.05     0.05     2.95
    0.05     0.05        3
    0.05     0.05     3.05
    0.05     0.05      3.1
    0.05     0.05     3.15
    0.05     0.05      3.2
    0.05     0.05     3.25
    0.05     0.05      3.3
    0.05     0.05     3.35
    0.05     0.05      3.4
    0.05     0.05     3.45
    0.05     0.05      3.5
    0.05     0.05     3.55
    0.05     0.05      3.6
    0.05     0.05     3.65
    0.05     0.05      3.7
    0.05     0.05     3.75
    0.05     0.05      3.8
    0.05     0.05     3.85
    0.05     0.05      3.9
    0.05     0.05     3.95
    0.05     0.05        4
    0.05     0.05     4.05
    0.05     0.05      4.1
    0.05     0.05     4.15
    0.05     0.05      4.2
    0.05     0.05     4.25
    0.05     0.05      4.3
    0.05     0.05     4.35
    0.05     0.05      4.4
    0.05     0.05     4.45
    0.05     0.05      4.5
    0.05     0.05     4.55
    0.05     0.05      4.6
    0.05     0.05     4.65
    0.05     0.05      4.7
    0.05     0.05     4.75
    0.05     0.05      4.8
    0.05     0.05     4.85
    0.05     0.05      4.9
    0.05     0.05     4.95
    0.05     0.05        5
    0.05     0.05     5.05
    0.05     0.05      5.1
    0.05     0.05     5.15
    0.05     0.05      5.2
CELLS 104 936
8 0 1 106 105 210 211 316 315
8 1 2 107 106 211 212 317 316
8 2 3 108 107 212 213 318 317
8 3 4 109 108 213 214 319 318
8 4 5 110 109 214 215 320 319
8 5 6 111 110 215 216 321 320
8 6 7 112 111 216 217 322 321
8 7 8 113 112 217 218 323 322
8 8 9 114 113 218 219 324 323
8 9 10 115 114 219 220 325 324
8 10 11 116 115 220 221 326 325
8 11 12 117 116 221 222 327 326
8 12 13 118 117 222 223 328 327
8 13 14 119 118 223 224 329 328
8 14 15 120 119 224 225 330 329
8 15 16 121 120 225 226 331 330
8 16 17 122 121 226 227 332 331
8 17 18 123 122 227 228 333 332
8 18 19 124 123 228 229 334 333
8 19 20 125 124 229 230 335 334
8 20 21 126 125 230 231 336 335
8 21 22 127 126 231 232 337 336
8 22 23 128 127 232 233 338 337
8 23 24 129 128 233 234 339 338
8 24 25 130 129 234 235 340 339
8 25 26 131 130 235 236 341 340
8 26 27 132 131 236 237 342 341
8 27 28 133 132 237 238 343 342
8 28 29 134 133 238 239 344 343
8 29 30 135 134 239 240 345 344
8 30 31 136 135 240 241 346 345
8 31 32 137 136 241 242 347 346
8 32 33 138 137 242 243 348 347
8 33 34 139 138 243 244 349 348
8 34 35 140 139 244 245 350 349
8 35 36 141 140 245 246 351 350
8 36 37 142 141 246 247 352 351
8 37 38 143 142 247 248 353 352
8 38 39 144 143 248 249 354 353
8 39 40 145 144 249 250 355 354
8 40 41 146 145 250 251 356 355
8 41 42 147 146 251 252 357 356
8 42 43 148 147 252 253 358 357
8 43 44 149 148 253 254 359 358
8 44 45 150 149 254 255 360 359
8 45 46 151 150 255 256 361 360
8 46 47 152 151 256 257 362 361
8 47 48 153 152 257 258 363 362
8 48 49 154 153 258 259 364 363
8 49 50 155 154 259 260 365 364
8 50 51 156 155 260 261 366 365
8 51 52 157 156 261 262 367 366
8 52 53 158 157 262 263 368 367
8 53 54 159 158 263 264 369 368
8 54 55 160 159 264 265 370 369
8 55 56 161 160 265 266 371 370
8 56 57 162 161 266 267 372 371
8 57 58 163 162 267 268 373 372
8 58 59 164 163 268 269 374 373
8 59 60 165 164 269 270 375 374
8 60 61 166 165 270 271 376 375
8 61 62 167 166 271 272 377 376
8 62 63 168 167 272 273 378 377
8 63 64 169 168 273 274 379 378
8 64 65 170 169 274 275 380 379
8 65 66 171 170 275 276 381 380
8 66 67 172 171 276 277 382 381
8 67 68 173 172 277 278 383 382
8 68 69 174 173 278 279 384 383
8 69 70 175 174 279 280 385 384
8 70 71 176 175 280 281 386 385
8 71 72 177 176 281 282 387 386
8 72 73 178 177 282 283 388 387
8 73 74 179 178 283 284 389 388
8 74 75 180 179 284 285 390 389
8 75 76 181 180 285 286 391 390
8 76 77 182 181 286 287 392 391
8 77 78 183 182 287 288 393 392
8 78 79 184 183 288 289 394 393
8 79 80 185 184 289 290 395 394
8 80 81 186 185 290 291 396 395
8 81 82 187 186 291 292 397 396
8 82 83 188 187 292 293 398 397
8 83 84 189 188 293 294 399 398
8 84 85 190 189 294 295 400 399
8 85 86 191 190 295 296 401 400
8 86 87 192 191 296 297 402 401
8 87 88 193 192 297 298 403 402
8 88 89 194 193 298 299 404 403
8 89 90 195 194 299 300 405 404
8 90 91 196 195 300 301 406 405
8 91 92 197 196 301 302 407 406
8 92 93 198 197 302 303 408 407
8 93 94 199 198 303 304 409 408
8 94 95 200 199 304 305 410 409
8 95 96 201 200 305 306 411 410
8 96 97 202 201 306 307 412 411
8 97 98 203 202 307 308 413 412
8 98 99 204 203 308 309 414 413
8 99 100 205 204 309 310 415 414
8 100 101 206 205 310 311 416 415
8 101 102 207 206 311 312 417 416
8 102 103 208 207 312 313 418 417
8 103 104 209 208 313 314 419 418
CELL_TYPES 104
12
12
12
12
12
12
12
12
12
12
12
12
12
12
12
12
12
12
12
12
12
12
12
12
12
12
12
12
12
12
12
12
12
12
12
12
12
12
12
12
12
12
12
12
12
12
12
12
12
12
12
12
12
12
12
12
12
12
12
12
12
12
12
12
12
12
12
12
12
12
12
12
12
12
12
12
12
12
12
12
12
12
12
12
12
12
12
12
12
12
12
12
12
12
12
12
12
12
12
12
12
12
12
12
CELL_DATA 104
SCALARS pressure float 1
LOOKUP_TABLE default
100000
100000
100000
100000
100000
100000
100000
100000
100000
100000
100000
100000
100000
100000
100000
100000
100000
100000
100000
100000
100000
100000
100000
99999.9
99999.7
99999
99997.2
99992
99978.6
99945.2
99866.1
99690
99322.1
98607.7
97329.9
95248.6
92193.9
88185.6
83468.9
78387.2
73216
68112.7
63158.9
58397
53860.5
49556.8
45506.2
41676.2
38084.5
34557.9
30971.2
27641
24261.6
23220.4
23316.8
23511.5
24773.9
27963.4
31263.9
33279.1
35424.6
36412.6
36527.7
36317.8
35937.2
35843.6
35888.6
36169.6
36445.7
36564.9
36594.6
36486.5
36205.8
36084
36079.9
36171.2
36513.4
36843
36896.2
36232.4
28148.9
12954.2
10356.8
10043.2
10005.2
10000.6
10000.1
10000
10000
10000
10000
10000
10000
10000
10000
10000
10000
10000
10000
10000
10000
10000
10000
10000
SCALARS Temperature float 1
LOOKUP_TABLE default
348.448
348.448
348.448
348.448
348.448
348.448
348.448
348.448
348.448
348.448
348.448
348.448
348.448
348.448
348.448
348.448
348.448
348.448
348.448
348.448
348.448
348.448
348.448
348.448
348.448
348.446
348.443
348.432
348.405
348.337
348.176
347.818
347.07
345.613
343.001
338.725
332.4
324.008
313.995
303.034
291.69
280.303
269.064
258.088
247.484
237.287
227.636
218.278
210.027
200.715
192.684
185.068
175.323
171.684
172.715
178.957
202.658
266.801
378.172
487.754
569.12
611.717
627.803
631.682
629.983
629.302
629.333
631.404
633.235
633.285
632.294
629.957
626.125
624.271
623.942
625.073
629.631
634.485
636.192
629.586
538.086
327.757
284.601
279.461
278.843
278.769
278.76
278.759
278.759
278.759
278.759
278.759
278.759
278.759
278.759
278.759
278.759
278.759
278.759
278.759
278.759
278.759
278.759
278.759
SCALARS rho float 1
LOOKUP_TABLE default
1
1
1
1
1
1
1
1
1
1
1
1
1
1
1
1
1
1
1
1
1
1
1
1
0.999999
0.999996
0.999988
0.999967
0.999911
0.999771
0.999442
0.998706
0.997167
0.994165
0.988755
0.979828
0.966451
0.948376
0.926275
0.901347
0.874626
0.846719
0.817933
0.788426
0.758337
0.727724
0.696577
0.665298
0.631847
0.599938
0.560081
0.520427
0.482191
0.471279
0.470412
0.457794
0.425959
0.365209
0.288066
0.237744
0.21689
0.207415
0.202739
0.200336
0.198772
0.198468
0.198708
0.199607
0.200549
0.201188
0.201668
0.201818
0.201491
0.20141
0.201493
0.201637
0.202072
0.202335
0.202084
0.20053
0.182284
0.13772
0.126802
0.125224
0.125027
0.125003
0.125
0.125
0.125
0.125
0.125
0.125
0.125
0.125
0.125
0.125
0.125
0.125
0.125
0.125
0.125
0.125
0.125
0.125
SCALARS vel.x float 1
LOOKUP_TABLE default
0
0
0
0
0
0
0
0
0
0
0
0
0
0
0
0
0
0
0
0
0
0
0
0
0
0
0
0
0
0
0
0
0
0
0
0
0
0
0
0
0
0
0
0
0
0
0
0
0
0
0
0
0
0
0
0
0
0
0
0
0
0
0
0
0
0
0
0
0
0
0
0
0
0
0
0
0
0
0
0
0
0
0
0
0
0
0
0
0
0
0
0
0
0
0
0
0
0
0
0
0
0
0
0
