       0 0.00104057
      50 0.00425585
     100 0.0166497
     150 0.0156867
     200 0.0358637
     250 0.127466
     300 0.160625
     350 0.0941029
     400 0.0869529
     450 0.124596
     500 0.122493
     550 0.110797
     600 0.199432
     650 0.130561
     700   0.1334
     750 0.146787
     800 0.379164
     850  1.36998
     900 0.255168
     950 0.135782
    1000 0.187305
    1050 0.109919
    1100 0.157861
    1150 0.117623
    1200  0.13582
    1250 0.137372
    1300 0.182881
    1350 0.143034
    1400 0.277807
    1450 0.100603
    1500 0.189012
    1550 0.183956
    1600 0.131213
    1650  0.20917
    1700 0.0790256
    1750 0.202768
    1800 0.174515
    1850 0.0719795
    1900 0.130242
    1950 0.0823672
    2000 0.0966467
    2050 0.0744569
    2100 0.0622707
    2150 0.0763525
    2200 0.0828761
    2250 0.128066
    2300 0.223037
    2350 0.0662618
    2400 0.173432
    2450 0.130481
    2500  1.09284
    2550 0.0703839
    2600 0.143873
    2650 0.0842315
    2700 0.220757
    2750 0.0837296
    2800 0.0772794
    2850 0.101828
    2900  0.10099
    2950  0.15255
    3000 0.0699887
    3050 0.140162
    3100 0.125082
    3150 0.081865
    3200 0.0975557
    3250  0.10078
    3300 0.0778541
    3350 0.0925499
    3400 0.0763549
    3450 0.138547
    3500 0.0814564
    3550 0.120285
    3600 0.104185
    3650 0.0711981
    3700 0.275491
    3750 0.0690328
    3800 0.0961755
    3850  1.00627
    3900 0.557532
    3950 0.110853
    4000 0.127494
    4050 0.122283
    4100 0.126793
    4150 0.0961128
    4200 0.093739
    4250 0.172162
    4300 0.0977868
    4350 0.0880413
    4400 0.109001
    4450 0.108873
    4500 0.158002
    4550 0.0787247
    4600 0.0768752
    4650 0.103291
    4700 0.0863907
    4750 0.108144
    4800  0.26029
    4850 0.0526332
    4900 0.113555
    4950 0.124611
    5000 0.278119
    5050 0.173201
    5100 0.131266
    5150 0.0911946
    5200 0.0706573
    5250 0.0703502
    5300 0.0699191
    5350 0.065831
    5400 0.0864977
    5450 0.0903589
    5500 0.0840426
    5550 0.0700701
    5600 0.125042
    5650 0.0865881
    5700 0.0774653
    5750 0.148979
    5800 0.339295
    5850 0.130713
    5900 0.081767
    5950 0.0587152
    6000 0.127989
    6050 0.067165
    6100 0.102349
    6150 0.0928655
    6200 0.213358
    6250  0.23803
    6300 0.418955
    6350 0.0975216
    6400 0.0780083
    6450 0.191412
    6500 0.0860581
    6550 0.157337
    6600 0.131648
    6650 0.191448
    6700 0.0685796
    6750 0.0847226
    6800 0.0821535
    6850 0.0704531
    6900 0.0821327
    6950 0.0640684
    7000  0.10513
