\relax 
\newlabel{eqDecomp}{{1}{1}}
\@writefile{lol}{\contentsline {lstlisting}{roe\textunderscore slow\textunderscore p1.cxx}{2}}
\@writefile{lol}{\contentsline {lstlisting}{main\textunderscore p1.cxx}{3}}
\@writefile{lol}{\contentsline {lstlisting}{\numberline {1}Output for Problem 1}{4}}
\@writefile{lol}{\contentsline {lstlisting}{roe\textunderscore plot.cxx}{4}}
\@writefile{lol}{\contentsline {lstlisting}{plot.sh}{6}}
\@writefile{lof}{\contentsline {figure}{\numberline {1}{\ignorespaces Density at $t = 0.01$ s\relax }}{6}}
\providecommand*\caption@xref[2]{\@setref\relax\@undefined{#1}}
\newlabel{fig1}{{1}{6}}
\@writefile{lof}{\contentsline {figure}{\numberline {2}{\ignorespaces Pressure at $t = 0.01$ s\relax }}{7}}
\newlabel{fig2}{{2}{7}}
\@writefile{lof}{\contentsline {figure}{\numberline {3}{\ignorespaces Velocity at $t = 0.01$ s\relax }}{7}}
\newlabel{fig3}{{3}{7}}
\newlabel{eq1}{{2}{8}}
\newlabel{eq2}{{3}{8}}
\newlabel{eq3}{{4}{8}}
\newlabel{eq4}{{5}{8}}
\@writefile{lol}{\contentsline {lstlisting}{roe\textunderscore fast.cxx}{9}}
\@writefile{lol}{\contentsline {lstlisting}{roe\textunderscore slow.cxx}{10}}
\@writefile{lol}{\contentsline {lstlisting}{main.cxx}{12}}
\@writefile{lol}{\contentsline {lstlisting}{\numberline {2}Output for Problem 2}{13}}
\@writefile{lot}{\contentsline {table}{\numberline {1}{\ignorespaces Summary of Computational Performance of Different Algorithms\relax }}{13}}
\newlabel{tab1}{{1}{13}}
\@writefile{lol}{\contentsline {lstlisting}{\numberline {3}\texttt  {flow\_oneD.cxx}}{13}}
\@writefile{lol}{\contentsline {lstlisting}{\numberline {4}\texttt  {thermo.cxx}}{14}}
\@writefile{lol}{\contentsline {lstlisting}{\numberline {5}\texttt  {matrix.cxx}}{15}}
