\relax 
\@writefile{lof}{\contentsline {figure}{\numberline {1}{\ignorespaces Shock Tube Diagram\relax }}{2}}
\providecommand*\caption@xref[2]{\@setref\relax\@undefined{#1}}
\newlabel{shocktube}{{1}{2}}
\newlabel{analytical}{{1}{3}}
\@writefile{lol}{\contentsline {lstlisting}{\numberline {1}Analytical Solution}{3}}
\@writefile{lof}{\contentsline {figure}{\numberline {2}{\ignorespaces Exact Solution -- Density\relax }}{5}}
\newlabel{densityexact}{{2}{5}}
\@writefile{lof}{\contentsline {figure}{\numberline {3}{\ignorespaces Exact Solution -- Pressure\relax }}{6}}
\newlabel{pressureexact}{{3}{6}}
\@writefile{lof}{\contentsline {figure}{\numberline {4}{\ignorespaces Exact Solution -- Velocity\relax }}{6}}
\newlabel{velocityexact}{{4}{6}}
\@writefile{lof}{\contentsline {figure}{\numberline {5}{\ignorespaces Exact Solution -- Temperature\relax }}{7}}
\newlabel{temperatureexact}{{5}{7}}
\newlabel{test}{{2}{8}}
\@writefile{lol}{\contentsline {lstlisting}{\numberline {2}Main routine}{8}}
\newlabel{sw}{{3}{11}}
\@writefile{lol}{\contentsline {lstlisting}{\numberline {3}Steger Warming Flux Splitting Method}{11}}
\newlabel{roe}{{4}{12}}
\@writefile{lol}{\contentsline {lstlisting}{\numberline {4}Roe's Method}{12}}
\newlabel{interpolate}{{5}{14}}
\@writefile{lol}{\contentsline {lstlisting}{\numberline {5}Reconstruction Methods}{14}}
\@writefile{lof}{\contentsline {figure}{\numberline {6}{\ignorespaces Density\relax }}{16}}
\newlabel{densityswfirstorder}{{6}{16}}
\@writefile{lof}{\contentsline {figure}{\numberline {7}{\ignorespaces Pressure\relax }}{16}}
\newlabel{pressureswfirstorder}{{7}{16}}
\@writefile{lof}{\contentsline {figure}{\numberline {8}{\ignorespaces Velocity\relax }}{17}}
\newlabel{velocityswfirstorder}{{8}{17}}
\@writefile{lof}{\contentsline {figure}{\numberline {9}{\ignorespaces Temperature\relax }}{17}}
\newlabel{temperatureswfirstorder}{{9}{17}}
\@writefile{lof}{\contentsline {figure}{\numberline {10}{\ignorespaces Density\relax }}{18}}
\newlabel{densityroefirstorder}{{10}{18}}
\@writefile{lof}{\contentsline {figure}{\numberline {11}{\ignorespaces Pressure\relax }}{18}}
\newlabel{pressureroefirstorder}{{11}{18}}
\@writefile{lof}{\contentsline {figure}{\numberline {12}{\ignorespaces Velocity\relax }}{19}}
\newlabel{velocityroefirstorder}{{12}{19}}
\@writefile{lof}{\contentsline {figure}{\numberline {13}{\ignorespaces Temperature\relax }}{19}}
\newlabel{temperatureroefirstorder}{{13}{19}}
\@writefile{lof}{\contentsline {figure}{\numberline {14}{\ignorespaces Density\relax }}{20}}
\newlabel{densityroesecondorder}{{14}{20}}
\@writefile{lof}{\contentsline {figure}{\numberline {15}{\ignorespaces Pressure\relax }}{20}}
\newlabel{pressureroesecondorder}{{15}{20}}
\@writefile{lof}{\contentsline {figure}{\numberline {16}{\ignorespaces Velocity\relax }}{21}}
\newlabel{velocityroesecondorder}{{16}{21}}
\@writefile{lof}{\contentsline {figure}{\numberline {17}{\ignorespaces Temperature\relax }}{21}}
\newlabel{temperatureroesecondorder}{{17}{21}}
\@writefile{lof}{\contentsline {figure}{\numberline {18}{\ignorespaces Error in Density compared to Anaytical\relax }}{22}}
\newlabel{densitystegerwarmingfirstorder_error}{{18}{22}}
\@writefile{lof}{\contentsline {figure}{\numberline {19}{\ignorespaces Error in Pressure compared to Anaytical\relax }}{22}}
\newlabel{pressurestegerwarmingfirstorder_error}{{19}{22}}
\@writefile{lof}{\contentsline {figure}{\numberline {20}{\ignorespaces Error in Velocity compared to Anaytical\relax }}{23}}
\newlabel{velocitystegerwarmingfirstorder_error}{{20}{23}}
\@writefile{lof}{\contentsline {figure}{\numberline {21}{\ignorespaces Error in Temperature compared to Anaytical\relax }}{23}}
\newlabel{temperatureroefirstorder_error}{{21}{23}}
\@writefile{lof}{\contentsline {figure}{\numberline {22}{\ignorespaces Error in Density compared to Anaytical\relax }}{24}}
\newlabel{densityroefirstorder_error}{{22}{24}}
\@writefile{lof}{\contentsline {figure}{\numberline {23}{\ignorespaces Error in Pressure compared to Anaytical\relax }}{24}}
\newlabel{pressureroefirstorder_error}{{23}{24}}
\@writefile{lof}{\contentsline {figure}{\numberline {24}{\ignorespaces Error in Velocity compared to Anaytical\relax }}{25}}
\newlabel{velocityroefirstorder_error}{{24}{25}}
\@writefile{lof}{\contentsline {figure}{\numberline {25}{\ignorespaces Error in Temperature compared to Anaytical\relax }}{25}}
\newlabel{temperatureroefirstorder_error}{{25}{25}}
\@writefile{lof}{\contentsline {figure}{\numberline {26}{\ignorespaces Error in Density compared to Anaytical\relax }}{26}}
\newlabel{densityroesecondorder_error}{{26}{26}}
\@writefile{lof}{\contentsline {figure}{\numberline {27}{\ignorespaces Error in Pressure compared to Anaytical\relax }}{26}}
\newlabel{pressureroesecondorder_error}{{27}{26}}
\@writefile{lof}{\contentsline {figure}{\numberline {28}{\ignorespaces Error in Velocity compared to Anaytical\relax }}{27}}
\newlabel{velocityroesecondorder_error}{{28}{27}}
\@writefile{lof}{\contentsline {figure}{\numberline {29}{\ignorespaces Error in Temperature compared to Anaytical\relax }}{27}}
\newlabel{temperatureroesecondorder_error}{{29}{27}}
\@writefile{lof}{\contentsline {figure}{\numberline {30}{\ignorespaces Error in Density compared to analytical with N = 160\relax }}{28}}
\newlabel{densityroesecondorder_comparemethods}{{30}{28}}
\@writefile{lof}{\contentsline {figure}{\numberline {31}{\ignorespaces Error in Pressure compared to analytical with N = 160\relax }}{28}}
\newlabel{pressureroesecondorder_comparemethods}{{31}{28}}
\@writefile{lof}{\contentsline {figure}{\numberline {32}{\ignorespaces Error in Velocity compared to analytical with N = 160\relax }}{29}}
\newlabel{velocityroesecondorder_comparemethods}{{32}{29}}
\@writefile{lof}{\contentsline {figure}{\numberline {33}{\ignorespaces Error in Temperature compared to analytical with N = 160\relax }}{29}}
\newlabel{temperatureroesecondorder_comparemethods}{{33}{29}}
\newlabel{cell}{{6}{30}}
\@writefile{lol}{\contentsline {lstlisting}{\numberline {6}\texttt  {cell.cxx}}{30}}
\@writefile{lol}{\contentsline {lstlisting}{\numberline {7}\texttt  {flow\_oneD.cxx}}{31}}
\@writefile{lol}{\contentsline {lstlisting}{\numberline {8}\texttt  {thermo.cxx}}{32}}
\@writefile{lol}{\contentsline {lstlisting}{\numberline {9}\texttt  {matrix.cxx}}{33}}
\@writefile{lol}{\contentsline {lstlisting}{\numberline {10}\texttt  {post.cxx}}{34}}
